CT;Angle;Tolerance;Passrate
COR;0;1;67.57
COR;90;1;63.09
COR;180;1;55.69
COR;0;2;81.23
COR;90;2;77.25
COR;180;2;72.74
COR;0;3;94.53
COR;90;3;89.32
COR;180;3;89.94
DEF;0;1;86.17
DEF;90;1;68.01
DEF;180;1;86.87
DEF;0;2;93.06
DEF;90;2;82.19
DEF;180;2;94.84
DEF;0;3;99.06
DEF;90;3;95.21
DEF;180;3;99.52
RAW;0;1;67.22
RAW;90;1;56.13
RAW;180;1;53.47
RAW;0;2;80.92
RAW;90;2;70.35
RAW;180;2;70.51
RAW;0;3;94.36
RAW;90;3;83.69
RAW;180;3;88.40
VAR;0;1;35.80
VAR;90;1;37.56
VAR;180;1;26.60
VAR;0;2;55.81
VAR;90;2;55.85
VAR;180;2;45.83
VAR;0;3;83.57
VAR;90;3;76.98
VAR;180;3;72.52
